<?xml version="1.0" encoding="UTF-8" standalone="no"?>
<svg
   xmlns:dc="http://purl.org/dc/elements/1.1/"
   xmlns:cc="http://creativecommons.org/ns#"
   xmlns:rdf="http://www.w3.org/1999/02/22-rdf-syntax-ns#"
   xmlns:svg="http://www.w3.org/2000/svg"
   xmlns="http://www.w3.org/2000/svg"
   xmlns:sodipodi="http://sodipodi.sourceforge.net/DTD/sodipodi-0.dtd"
   xmlns:inkscape="http://www.inkscape.org/namespaces/inkscape"
   width="121"
   height="139"
   id="glyph_B"
   version="1.1"
   inkscape:version="0.48.2 r9819"
   sodipodi:docname="Birdfont_logo.svg">
  <metadata
     id="metadata9">
    <rdf:RDF>
      <cc:Work
         rdf:about="">
        <dc:format>image/svg+xml</dc:format>
        <dc:type
           rdf:resource="http://purl.org/dc/dcmitype/StillImage" />
      </cc:Work>
    </rdf:RDF>
  </metadata>
  <defs
     id="defs7" />
  <sodipodi:namedview
     pagecolor="#ffffff"
     bordercolor="#666666"
     borderopacity="1"
     objecttolerance="10"
     gridtolerance="10"
     guidetolerance="10"
     inkscape:pageopacity="0"
     inkscape:pageshadow="2"
     inkscape:window-width="640"
     inkscape:window-height="480"
     id="namedview5"
     showgrid="false"
     inkscape:zoom="1.6978417"
     inkscape:cx="60.5"
     inkscape:cy="69.5"
     inkscape:window-x="7"
     inkscape:window-y="24"
     inkscape:window-maximized="0"
     inkscape:current-layer="glyph_B" />
  <g
     id="B"
     transform="translate(1.1779661,40.639831)">
    <path
       style="fill:#000000;stroke-width:0px"
       d="m 56.301897,37.085767 0.17522,26.051307 c 7.298276,1.431373 10.930237,0.560097 16.488354,0.379087 2.710502,-0.08827 7.826505,-3.575574 7.996772,-12.413921 C 81.115362,43.153982 76.086618,37.16931 70.263392,37.169417 64.375935,37.003446 60.955729,37.11365 56.301897,37.085767 z M 67.493937,7.5953171 c 1.580729,0.3117635 3.288554,1.0785542 4.678486,2.3718731 1.617091,1.5046868 3.524355,4.9000458 3.6606,8.8737438 0.175464,5.117549 -1.874777,9.758978 -10.017574,10.561049 -3.375057,0.332445 -6.719056,0.279172 -10.078584,0.276176 -0.02806,-2.500975 -0.05623,-5.011287 -0.08418,-7.502925 -0.01105,-0.984614 -0.02346,-2.090782 -0.03639,-3.242988 -0.02133,-1.901343 -0.0441,-3.930816 -0.06466,-5.763062 -0.0287,-2.558237 -0.04189,-3.733096 -0.06283,-5.5996438 0.02094,1.8665478 0,0 0,0 1.803264,-0.1298632 3.761209,-0.251128 5.732798,-0.2553313 0.136434,-2.909e-4 1.029723,-0.013814 1.168911,-0.012903 3.119911,-0.072843 3.626979,0.00282 5.103423,0.2940113 z m 2.255909,-9.4348768 c 4.263871,0.433019 8.279541,2.22388934 9.382787,2.993566 2.135389,1.4897483 7.141184,5.2944008 8.28358,10.3032717 1.421809,6.233971 0.883251,11.913331 -2.044346,17.627912 1.602165,-0.728859 4.067405,-2.712763 5.661118,-3.452227 2.212218,-1.026444 4.271708,-2.225359 6.693341,-3.040735 1.30844,-0.440558 2.913674,-0.461488 4.148154,0.170909 1.83122,0.938093 2.59168,1.639328 3.19636,3.523263 0.33981,1.058704 0.42575,2.680699 0.63862,4.021048 0.44936,0.991633 0.73956,2.010475 1.34808,2.974898 0.22504,0.356643 -0.32451,0.750575 -0.81321,0.418576 l -3.82036,-1.801471 c -1.28253,1.324286 -2.727963,2.508259 -3.847591,3.972857 -1.045209,1.36725 -1.717434,2.81516 -2.599596,4.292868 -0.398716,0.667891 -0.85183,1.584436 -1.303704,2.32832 -0.860231,1.416132 -1.257214,2.035795 -1.988726,3.234006 0.282156,0.742062 0.284908,1.632523 0.58408,3.066006 0.324939,2.66832 0.295973,6.694837 -0.577488,10.127725 -0.394763,1.551499 -0.888321,3.392851 -1.864649,5.106 -1.464492,2.569722 -3.783795,4.956177 -6.160519,6.484759 -5.244588,3.373039 -8.320588,4.127163 -13.371423,4.968968 -5.997962,0.999661 -11.635398,0.0074 -17.73119,-0.0953 -1.068089,3.23124 -2.031315,5.503807 -2.959813,8.285818 -0.09432,0.282601 -0.188261,0.570541 -0.282747,0.865712 -0.63476,1.980986 -1.168085,3.87587 -1.752128,5.813806 -1.253183,-0.327289 -2.715292,-0.920439 -3.759549,-0.981866 -1.353333,-0.07961 -2.106018,0.38326 -3.159027,0.574891 l -1.220926,-2.848826 c 1.253604,-2.890408 2.808799,-4.549524 3.76081,-8.671226 -0.117107,-22.806753 -0.115087,-21.784925 -0.224099,-34.089254 -0.03108,0.0089 -0.06556,0.01873 -0.09834,0.0281 -0.784748,-0.956752 -1.209114,-1.675957 -2.354242,-2.870257 -0.85588,-1.077205 -1.97999,-2.168391 -3.296607,-3.006462 -0.438257,-0.913802 -0.08201,-1.592002 -1.314773,-2.741407 -0.894835,-0.789539 -1.986111,0.173279 -2.574366,-0.545524 -0.875508,-1.003733 0.167962,-0.983821 -0.564803,-1.803665 -1.319141,-1.475902 -1.197486,-1.30738 -2.135036,-2.243408 0.657324,-1.579917 3.568545,-3.55342 1.971972,-4.739751 -1.320166,1.690349 -3.072302,-0.137909 -3.913913,-0.752449 -1.698531,0.954878 -2.128161,0.384377 -3.192241,0.576566 0.212355,-1.216111 3.027051,-2.361269 0.637065,-3.648332 -1.270308,-0.746317 -2.603047,-0.515594 -3.943166,-1.496988 -1.680031,-0.831893 -1.844999,-0.44107 -3.23698,-1.052841 0.284342,-0.710798 1.506029,-1.560527 0.853028,-2.132396 -1.047124,-0.958132 -2.290181,-0.947968 -3.045337,-1.527887 -1.224863,-0.894844 -0.808297,-0.03006 -1.647655,-0.797994 -1.00978,-1.08218 0.111709,-1.162767 -0.487684,-1.984668 -0.84593,-0.653713 -0.717435,1.188746 -1.427896,0.55711 C 12.911401,13.001286 12.97662,11.964035 12.154106,11.291881 8.9265957,8.800085 10.102309,10.663755 8.6684753,9.151716 6.9584978,7.2622873 12.606876,9.7666988 11.373404,8.8116614 8.6205358,7.7279996 4.8143421,7.2713075 2.8319163,5.2231552 1.0816172,3.3869707 10.600653,8.0384492 9.102586,6.6349688 5.6766834,4.9680879 3.9853779,4.1140494 2.1193578,2.1293774 2.0502472,2.0556364 2.0074287,2.0006309 1.9887809,1.9636103 1.6373727,1.2661619 9.1221696,6.1578907 7.983207,4.988809 5.4019745,2.4180433 4.1582764,2.3999424 3.0362789,0.81939734 2.3012752,-0.21737518 12.055598,5.6496713 11.339463,4.6667756 9.9720435,3.0788028 5.1757082,-0.51810356 7.2372051,-0.09714259 8.0776124,0.0574832 12.456067,4.2042453 13.497278,4.5424133 c 2.306776,0.8207498 4.279491,2.4405104 6.419236,3.6607656 l 5.056428,3.6016271 c 1.162869,0.357834 2.628424,1.422535 3.488606,1.073502 0.385641,-0.115123 0.554732,-0.516012 0.653633,-0.99659 0.154262,-0.749567 0.132891,-1.692511 0.506924,-2.0039712 C 30.723546,9.086898 29.782663,7.9310426 30.266649,7.1424034 29.635867,7.4614021 28.480555,8.8088209 28.374303,8.0993995 28.464032,7.2595988 29.140208,6.7883238 28.559426,5.8293714 27.789563,4.2025242 26.075473,3.2933099 25.358699,2.0252791 L 26.062,-0.06643651 c -1.102713,-0.48302635 -2.121916,0.14993043 -3.308137,-1.44907899 -0.774581,-1.0595063 2.836287,-1.6889997 2.099336,-2.6206718 -1.641062,-0.7768296 -4.64163,-0.7359183 -4.923187,-2.3304888 -0.07332,-1.2870531 4.967742,-1.1472965 4.273523,-2.338824 -2.421571,-1.1210494 -4.773947,-2.1239919 -7.160921,-3.1859879 1.33239,-0.335791 2.310299,-0.696688 3.99717,-1.007372 1.576659,0.0802 2.341835,-0.367194 3.232137,-0.605423 -0.925636,-1.788517 -6.512779,-4.376624 -7.043915,-5.721018 -0.631619,-1.852229 -0.249866,-1.243506 0.754113,-2.464093 1.692208,-0.612734 4.668081,2.185127 4.614906,0.850517 l 3.680963,1.768861 c 0.02377,-0.02961 0.03508,-0.07085 0.03492,-0.120348 -0.0038,-1.249068 -6.611007,-8.660696 -5.954825,-9.453352 0.54637,-0.996372 1.851957,0.681029 2.436069,1.01089 1.455349,-0.169539 1.300951,0.303933 1.951426,0.455899 l 4.482788,3.555158 c 0.138845,-0.437605 0.494663,-0.06295 0.416534,-1.312816 -0.09639,-1.591037 -3.832181,-3.945843 -4.14342,-5.081185 -0.129102,-1.883614 0.03264,-0.595265 -0.184468,-2.060014 l 1.283827,-0.622211 c 0.986492,0.722248 1.872648,1.60673 2.959475,2.166743 1.130612,0.582575 2.637455,0.407276 3.615029,1.220925 2.256769,1.878342 3.691528,4.587442 5.808301,6.622251 2.952625,2.838295 6.089226,5.494743 9.360427,7.959122 3.402635,2.563397 7.048534,4.8498447 10.627568,7.0989559 2.268861,1.425781 4.608374,2.7359105 6.912562,4.1038657 1.288547,0.5955242 2.484993,1.4723014 3.865642,1.7865727 z M 46.723088,38.284592 c 0,0.03379 0,3.352928 0,5.029392 0.05623,2.51387 0.235999,7.522376 0.168675,7.541611 0.132179,9.621663 -0.111417,11.916806 -0.07642,21.537047 0.01217,-0.04116 1.612104,0.03338 3.33013,0.01967 0.800667,-0.04895 2.630538,-0.03185 3.453629,-0.03209 0.02937,-9e-6 1.847336,0.08431 2.770405,0.137616 1.152586,0.06656 2.45683,0.186487 3.456398,0.222001 5.942525,0.211131 6.571667,0.749292 12.512669,-0.272553 4.687797,-0.806295 8.320012,-2.321931 12.052609,-5.270368 2.876042,-2.271833 5.058134,-5.423809 5.751159,-9.022776 0.780166,-4.051503 1.394615,-8.259968 -0.199845,-13.522895 -2.852771,-6.033533 -8.066202,-9.204396 -13.181579,-10.830336 1.17842,-0.861173 2.506795,-1.554768 3.535261,-2.583519 1.044051,-1.044339 2.02858,-2.174076 2.588086,-3.541521 3.172138,-7.752775 2.684048,-12.055869 1.817889,-15.142707 C 83.842383,9.489097 80.435153,5.1087078 77.639755,3.5043922 74.984496,1.9805047 71.065094,0.39079114 68.27253,0.22962527 c -0.174742,0.002024 -6.377445,-0.48086966 -10.500814,-0.40307024 -0.309595,0.005841 -2.435124,-0.0515862 -2.722259,-0.0461686 -3.540911,0.0668096 -5.391751,0.0638784 -8.087627,0.0958175 C 46.94539,2.2039537 46.93422,3.1916005 46.91252,6.8594533 46.82566,16.425282 46.699152,32.797091 46.723085,38.284592 z"
       id="path_B"
       inkscape:connector-curvature="0" />
  </g>
</svg>
